# Blender MTL File: 'dirt.blend'
# Material Count: 1

newmtl Material.001
Ns 96.078431
Ka 1.000000 1.000000 1.000000
Kd 0.02400 0.1200 0.002000
Ks 0.500000 0.500000 0.500000
Ke 0.000000 0.000000 0.000000
Ni 1.000000
d 1.000000
illum 2
