# Blender MTL File: 'ogre.blend'
# Material Count: 2

newmtl ogreBottom
Ns 96.078431
Ka 1.000000 1.000000 1.000000
Kd 0.1630000 0.101000 0.00300
Ks 0.500000 0.500000 0.500000
Ke 0.000000 0.000000 0.000000
Ni 1.000000
d 1.000000
illum 2

newmtl ogreTop
Ns 96.078431
Ka 1.000000 1.000000 1.000000
Kd 0.025000 0.1630000 0.002000
Ks 0.500000 0.500000 0.500000
Ke 0.000000 0.000000 0.000000
Ni 1.000000
d 1.000000
illum 2
