# Blender v2.79 (sub 0) OBJ File: 'Tree 01.blend'
# www.blender.org
mtllib Tree1.mtl
o Cube_Cube.001
v 0.000000 -0.008438 -0.105842
v -0.091662 -0.008438 -0.052921
v -0.091662 -0.008438 0.052921
v 0.000000 -0.008438 0.105843
v 0.091662 -0.008438 0.052921
v 0.091662 -0.008438 -0.052921
v 0.000000 0.249765 -0.055628
v -0.073638 0.249765 -0.013113
v -0.073638 0.249765 0.071916
v 0.000000 0.249765 0.114431
v 0.073638 0.249765 0.071916
v 0.073638 0.249765 -0.013113
v -0.009261 0.498633 -0.072328
v -0.082899 0.498633 -0.029813
v -0.082899 0.498633 0.055216
v -0.009261 0.498633 0.097731
v 0.064377 0.498633 0.055216
v 0.064377 0.498633 -0.029813
v -0.009261 0.868105 -0.080584
v -0.076604 0.868105 -0.041703
v -0.076604 0.868105 0.036058
v -0.009261 0.868105 0.074939
v 0.058082 0.868105 0.036058
v 0.058082 0.868105 -0.041703
v -0.030496 0.709481 -0.469240
v -0.332388 0.748813 -0.314109
v -0.468723 0.730122 0.015930
v -0.330236 0.711709 0.351345
v 0.023646 0.708011 0.519177
v 0.314932 0.712271 0.344609
v 0.451267 0.693784 0.006403
v 0.308186 0.712623 -0.320846
v -0.029169 1.161844 -0.355001
v -0.271631 1.167318 -0.251863
v -0.370045 1.180273 -0.007728
v -0.266761 1.193122 0.234393
v -0.022283 1.198337 0.332669
v 0.220179 1.192864 0.229530
v 0.318593 1.179908 -0.014605
v 0.215309 1.167059 -0.256726
v -0.046313 0.961444 -0.719717
v -0.537477 0.976306 -0.490171
v -0.736837 0.934571 -0.003317
v -0.527612 0.950115 0.495787
v -0.032362 0.920320 0.686888
v 0.458801 0.950377 0.485927
v 0.658162 0.934942 -0.017261
v 0.448937 0.976568 -0.500030
v -0.044373 1.390927 -0.501138
v -0.398921 1.386917 -0.350178
v -0.542830 1.377425 0.007155
v -0.391800 1.368011 0.361539
v -0.034303 1.364190 0.505381
v 0.320245 1.368200 0.354421
v 0.464155 1.377692 -0.002911
v 0.313125 1.387107 -0.357295
v -0.026872 1.381508 -0.708819
v -0.529339 1.339252 -0.503094
v -0.733286 1.339557 0.007287
v -0.519247 1.274792 0.505323
v -0.012601 1.220929 0.660128
v 0.489865 1.275437 0.495238
v 0.693813 1.340468 -0.006975
v 0.479774 1.339896 -0.513178
v -0.017366 2.153392 -0.325947
v -0.218623 2.161245 -0.226996
v -0.312974 2.146273 0.007227
v -0.213955 2.119664 0.180714
v -0.010764 2.099458 0.275000
v 0.221687 2.105783 0.176049
v 0.316037 2.132516 0.000629
v 0.217018 2.147364 -0.231662
v -0.024573 1.868864 -0.539500
v -0.365111 1.859598 -0.394538
v -0.503334 1.875637 0.002477
v -0.358272 1.821080 0.378063
v -0.014901 1.793506 0.564925
v 0.325638 1.821517 0.371228
v 0.506003 1.876254 -0.007189
v 0.323571 1.866282 -0.406019
v -0.021845 2.495045 -0.198012
v -0.170327 2.491005 -0.134806
v -0.230594 2.481441 0.014808
v -0.167345 2.471957 0.163187
v -0.017628 2.468107 0.223413
v 0.130853 2.472147 0.160206
v 0.191121 2.481711 0.010593
v 0.127871 2.491195 -0.137786
v -0.010305 2.390214 -0.319256
v -0.244378 2.386034 -0.219215
v -0.338533 2.352611 0.005766
v -0.238710 2.357689 0.240173
v -0.002005 2.338304 0.349978
v 0.231463 2.368417 0.235143
v 0.326392 2.367782 -0.001347
v 0.225796 2.396761 -0.224244
v -0.021295 3.033476 0.014101
vt 0.837784 0.802938
vt 0.815325 0.750230
vt 0.835566 0.747843
vt 0.908591 0.805901
vt 0.896769 0.753775
vt 0.917606 0.755443
vt 0.876132 0.751234
vt 0.856369 0.803070
vt 0.855933 0.748595
vt 0.819418 0.803818
vt 0.795193 0.754687
vt 0.874536 0.803789
vt 0.888887 0.853867
vt 0.891849 0.804713
vt 0.872280 0.853990
vt 0.806367 0.855088
vt 0.801920 0.805804
vt 0.855889 0.854680
vt 0.822979 0.854968
vt 0.886434 0.926039
vt 0.855924 0.926466
vt 0.839477 0.855105
vt 0.825480 0.926988
vt 0.905516 0.854927
vt 0.871190 0.925961
vt 0.810335 0.927035
vt 0.840705 0.926910
vt 0.901578 0.927035
vt 0.198327 0.615535
vt 0.157132 0.709462
vt 0.130316 0.620311
vt 0.108812 0.730209
vt 0.062391 0.649126
vt 0.444416 0.792490
vt 0.470259 0.677699
vt 0.522265 0.728720
vt 0.362908 0.726846
vt 0.341675 0.613854
vt 0.416489 0.636457
vt 0.261476 0.700493
vt 0.269354 0.608756
vt 0.065876 0.760570
vt 0.000273 0.684258
vt 0.313303 0.709391
vt 0.590578 0.558169
vt 0.518078 0.558169
vt 0.220024 0.310882
vt 0.179022 0.432738
vt 0.121510 0.355675
vt 0.050554 0.437291
vt 0.554013 0.557623
vt 0.595833 0.435001
vt 0.646583 0.530380
vt 0.467340 0.433168
vt 0.428931 0.310515
vt 0.524550 0.356467
vt 0.323339 0.385584
vt 0.323048 0.289090
vt 0.092679 0.557623
vt 0.000273 0.529827
vt 0.829362 0.290584
vt 0.904091 0.472681
vt 0.648000 0.471006
vt 0.269207 0.190243
vt 0.126676 0.069419
vt 0.219695 0.013244
vt 0.192579 0.243896
vt 0.045913 0.142151
vt 0.610977 0.262295
vt 0.428312 0.249595
vt 0.588209 0.155768
vt 0.398219 0.209133
vt 0.436636 0.014179
vt 0.527988 0.068440
vt 0.318921 0.181521
vt 0.328593 0.000273
vt 0.169041 0.288544
vt 0.000273 0.241866
vt 0.358595 0.188063
vt 0.692246 0.255328
vt 0.611522 0.186240
vt 0.611522 0.077307
vt 0.146348 0.799055
vt 0.168592 0.946740
vt 0.081402 0.834258
vt 0.031142 0.889114
vt 0.454259 0.971453
vt 0.309855 0.969477
vt 0.428229 0.891214
vt 0.289172 0.944785
vt 0.311036 0.797265
vt 0.383383 0.826942
vt 0.230075 0.793035
vt 0.196910 0.931391
vt 0.146653 0.970322
vt 0.000273 0.971024
vt 0.260574 0.929968
vt 0.938868 0.563339
vt 0.802449 0.682840
vt 0.857961 0.558169
vt 0.702721 0.808314
vt 0.794647 0.696719
vt 0.747115 0.833006
vt 0.669972 0.769480
vt 0.658826 0.623919
vt 0.647597 0.674906
vt 0.794332 0.846606
vt 0.647597 0.725753
vt 0.695110 0.586306
vt 0.493962 0.915990
vt 0.458088 0.829271
vt 0.578832 0.829827
vt 0.737464 0.558169
vt 0.208891 0.700170
vt 0.406930 0.755610
vt 0.641306 0.608343
vt 0.593613 0.727156
vt 0.647051 0.676280
vt 0.460198 0.610685
vt 0.247385 0.397535
vt 0.125793 0.488231
vt 0.521124 0.488123
vt 0.399332 0.397284
vt 0.724069 0.289090
vt 0.908299 0.364615
vt 0.829745 0.547272
vt 0.721705 0.547272
vt 0.647129 0.364922
vt 0.228184 0.208191
vt 0.437851 0.288544
vt 0.689580 0.000273
vt 0.798238 0.001532
vt 0.875485 0.077988
vt 0.875482 0.187652
vt 0.797956 0.264176
vt 0.321009 0.999727
vt 0.228629 0.925615
vt 0.133432 0.999727
vt 0.999506 0.621387
vt 0.997546 0.695233
vt 0.944399 0.747297
vt 0.856865 0.747297
vt 0.795193 0.604805
vt 0.493759 0.793035
vt 0.542869 0.793948
vt 0.578924 0.880625
vt 0.544810 0.915990
vt 0.454805 0.881377
vn 0.4931 0.1661 -0.8540
vn 0.4998 -0.0288 0.8657
vn -0.9976 0.0696 0.0000
vn 0.9976 0.0696 0.0000
vn -0.4998 -0.0288 0.8657
vn -0.4931 0.1661 -0.8540
vn 0.4985 0.0765 0.8635
vn -0.9993 -0.0372 0.0000
vn 0.9993 0.0372 0.0000
vn -0.4996 0.0395 0.8654
vn -0.4985 -0.0765 -0.8635
vn 0.4996 -0.0395 -0.8654
vn -0.4993 0.0533 0.8648
vn -0.4999 -0.0193 -0.8659
vn 0.4999 -0.0193 -0.8659
vn 0.4993 0.0533 0.8648
vn -0.9999 0.0170 0.0000
vn 0.9999 0.0170 0.0000
vn -0.4224 0.2231 -0.8785
vn 0.3911 0.2065 -0.8969
vn 0.9002 0.2608 0.3486
vn -0.4075 0.2911 0.8656
vn -0.9126 0.1808 -0.3667
vn 0.8968 0.2284 -0.3790
vn 0.4775 0.3511 0.8054
vn -0.8992 0.2116 0.3829
vn 0.0003 -0.9985 -0.0549
vn -0.3733 0.4221 -0.8261
vn 0.3567 0.4225 -0.8332
vn 0.8677 0.3695 0.3325
vn -0.3174 0.3577 0.8782
vn -0.8647 0.3864 -0.3210
vn 0.8578 0.3868 -0.3384
vn 0.3348 0.3579 0.8717
vn -0.8612 0.3690 0.3495
vn -0.0002 -0.9989 -0.0474
vn -0.3740 0.4192 -0.8273
vn 0.3577 0.4091 -0.8394
vn 0.8230 0.4149 0.3879
vn -0.2307 0.3911 0.8910
vn -0.8358 0.4355 -0.3343
vn 0.8420 0.4050 -0.3565
vn 0.2490 0.3884 0.8872
vn -0.8009 0.4438 0.4019
vn -0.0761 -0.9924 -0.0964
vn -0.3605 0.4478 -0.8182
vn 0.3222 0.4522 -0.8317
vn 0.8099 0.3858 0.4418
vn -0.4102 0.4106 0.8143
vn -0.8621 0.3960 -0.3161
vn 0.8202 0.4224 -0.3857
vn 0.4252 0.4102 0.8068
vn -0.8457 0.3738 0.3809
vn -0.0008 -0.9897 -0.1434
vn 0.3248 0.4395 -0.8374
vn -0.3623 0.4240 -0.8300
vn -0.3590 0.3979 0.8442
vn 0.8368 0.4445 -0.3199
vn -0.8496 0.3915 0.3533
vn -0.8630 0.4058 -0.3009
vn 0.3581 0.4142 0.8368
vn 0.0223 -0.9986 -0.0490
vn 0.8382 0.4300 0.3353
vn -0.3807 0.1899 -0.9050
vn 0.3590 0.2275 -0.9052
vn 0.9001 0.2610 0.3490
vn -0.3645 0.2649 0.8927
vn -0.9075 0.1876 -0.3758
vn 0.8890 0.2370 -0.3918
vn 0.3806 0.2856 0.8795
vn -0.9019 0.2173 0.3732
vn -0.0571 -0.9952 -0.0799
vn -0.0543 -0.9880 0.1448
vn -0.0399 -0.9984 -0.0401
vn -0.0390 -0.9985 0.0388
vn 0.0006 -0.9997 -0.0233
vn -0.3616 0.4079 -0.8384
vn 0.3446 0.4079 -0.8455
vn 0.8494 0.3926 0.3525
vn -0.3408 0.3861 0.8572
vn -0.8532 0.4014 -0.3330
vn 0.8463 0.4016 -0.3500
vn 0.3577 0.3862 0.8503
vn -0.8423 0.3924 0.3694
vn 0.0454 -0.9967 -0.0669
vn 0.0009 -0.9978 0.0666
vn -0.0461 -0.9968 -0.0659
vn 0.0875 -0.9940 0.0652
vn -0.0856 -0.9941 0.0668
vn -0.3887 0.4132 -0.8235
vn 0.3490 0.4130 -0.8412
vn 0.7922 0.3732 0.4829
vn -0.3410 0.4420 0.8297
vn -0.8482 0.4262 -0.3144
vn 0.8536 0.3958 -0.3386
vn 0.3434 0.4316 0.8342
vn -0.7681 0.4002 0.4998
vn -0.1202 -0.9916 -0.0475
vn 0.0356 -0.9925 -0.1168
vn -0.0367 -0.9926 -0.1160
vn 0.1207 -0.9914 -0.0499
vn 0.0755 -0.9923 -0.0978
vn 0.3417 0.4590 -0.8201
vn 0.8314 0.4217 0.3619
vn -0.3363 0.3827 0.8605
vn -0.8609 0.3941 -0.3216
vn 0.8344 0.4435 -0.3273
vn 0.3530 0.3826 0.8538
vn -0.8449 0.3725 0.3840
vn 0.0520 -0.9969 0.0584
vn -0.0091 -0.9999 0.0044
vn 0.0008 -0.9997 0.0246
vn -0.0008 -0.9896 -0.1435
vn -0.0008 -0.9895 -0.1445
vn 0.1972 -0.9783 -0.0628
vn -0.0084 -0.9981 -0.0615
vn 0.0526 -0.9967 -0.0621
vn -0.1535 -0.9864 -0.0590
vn 0.0200 -0.9763 -0.2154
usemtl Trunk
s off
f 7/1/1 6/2/1 1/3/1
f 11/4/2 4/5/2 5/6/2
f 3/7/3 8/8/3 2/9/3
f 12/10/4 5/11/4 6/2/4
f 4/5/5 9/12/5 3/7/5
f 2/9/6 7/1/6 1/3/6
f 11/4/7 16/13/7 10/14/7
f 15/15/8 8/8/8 9/12/8
f 12/10/9 17/16/9 11/17/9
f 16/13/10 9/12/10 10/14/10
f 14/18/11 7/1/11 8/8/11
f 7/1/12 18/19/12 12/10/12
f 22/20/13 15/15/13 16/13/13
f 20/21/14 13/22/14 14/18/14
f 13/22/15 24/23/15 18/19/15
f 17/24/16 22/20/16 16/13/16
f 21/25/17 14/18/17 15/15/17
f 18/19/18 23/26/18 17/16/18
f 7/1/1 12/10/1 6/2/1
f 11/4/2 10/14/2 4/5/2
f 3/7/3 9/12/3 8/8/3
f 12/10/4 11/17/4 5/11/4
f 4/5/5 10/14/5 9/12/5
f 2/9/6 8/8/6 7/1/6
f 11/4/7 17/24/7 16/13/7
f 15/15/8 14/18/8 8/8/8
f 12/10/9 18/19/9 17/16/9
f 16/13/10 15/15/10 9/12/10
f 14/18/11 13/22/11 7/1/11
f 7/1/12 13/22/12 18/19/12
f 22/20/13 21/25/13 15/15/13
f 20/21/14 19/27/14 13/22/14
f 13/22/15 19/27/15 24/23/15
f 17/24/16 23/28/16 22/20/16
f 21/25/17 20/21/17 14/18/17
f 18/19/18 24/23/18 23/26/18
usemtl Leaves
f 26/29/19 33/30/19 25/31/19
f 25/31/20 40/32/20 32/33/20
f 39/34/21 30/35/21 31/36/21
f 37/37/22 28/38/22 29/39/22
f 35/40/23 26/29/23 27/41/23
f 32/33/24 39/42/24 31/43/24
f 30/35/25 37/37/25 29/39/25
f 36/44/26 27/41/26 28/38/26
f 27/45/27 30/35/27 28/46/27
f 42/47/28 49/48/28 41/49/28
f 49/48/29 48/50/29 41/49/29
f 55/51/30 46/52/30 47/53/30
f 53/54/31 44/55/31 45/56/31
f 51/57/32 42/47/32 43/58/32
f 48/50/33 55/59/33 47/60/33
f 46/52/34 53/54/34 45/56/34
f 44/55/35 51/57/35 43/58/35
f 42/61/36 48/62/36 45/63/36
f 66/64/37 57/65/37 58/66/37
f 57/65/38 72/67/38 64/68/38
f 63/69/39 70/70/39 62/71/39
f 69/72/40 60/73/40 61/74/40
f 67/75/41 58/66/41 59/76/41
f 64/68/42 71/77/42 63/78/42
f 62/71/43 69/72/43 61/74/43
f 68/79/44 59/76/44 60/73/44
f 61/80/45 60/81/45 59/82/45
f 74/83/46 81/84/46 73/85/46
f 81/84/47 80/86/47 73/85/47
f 79/87/48 86/88/48 78/89/48
f 85/90/49 76/91/49 77/92/49
f 75/93/50 82/94/50 74/83/50
f 88/95/51 79/96/51 80/86/51
f 78/89/52 85/90/52 77/92/52
f 84/97/53 75/93/53 76/91/53
f 75/98/54 78/99/54 76/100/54
f 89/101/55 97/102/55 96/103/55
f 90/104/56 97/102/56 89/101/56
f 93/105/57 97/102/57 92/106/57
f 96/103/58 97/102/58 95/107/58
f 92/106/59 97/102/59 91/108/59
f 91/108/60 97/102/60 90/104/60
f 94/109/61 97/102/61 93/105/61
f 94/110/62 92/111/62 89/112/62
f 95/113/63 97/102/63 94/109/63
f 26/29/64 34/114/64 33/30/64
f 25/31/65 33/30/65 40/32/65
f 39/34/66 38/115/66 30/35/66
f 37/37/67 36/44/67 28/38/67
f 35/40/68 34/114/68 26/29/68
f 32/33/69 40/32/69 39/42/69
f 30/35/70 38/115/70 37/37/70
f 36/44/71 35/40/71 27/41/71
f 27/45/72 26/116/72 32/117/72
f 26/116/73 25/118/73 32/117/73
f 32/117/74 31/36/74 27/45/74
f 31/36/75 30/35/75 27/45/75
f 30/35/76 29/119/76 28/46/76
f 42/47/77 50/120/77 49/48/77
f 49/48/78 56/121/78 48/50/78
f 55/51/79 54/122/79 46/52/79
f 53/54/80 52/123/80 44/55/80
f 51/57/81 50/120/81 42/47/81
f 48/50/82 56/121/82 55/59/82
f 46/52/83 54/122/83 53/54/83
f 44/55/84 52/123/84 51/57/84
f 43/124/85 42/61/85 45/63/85
f 42/61/86 41/125/86 48/62/86
f 48/62/87 47/126/87 45/63/87
f 47/126/88 46/127/88 45/63/88
f 45/63/89 44/128/89 43/124/89
f 66/64/90 65/129/90 57/65/90
f 57/65/91 65/129/91 72/67/91
f 63/69/92 71/130/92 70/70/92
f 69/72/93 68/79/93 60/73/93
f 67/75/94 66/64/94 58/66/94
f 64/68/95 72/67/95 71/77/95
f 62/71/96 70/70/96 69/72/96
f 68/79/97 67/75/97 59/76/97
f 59/82/98 58/131/98 61/80/98
f 58/131/99 57/132/99 61/80/99
f 57/132/100 64/133/100 61/80/100
f 64/133/101 63/134/101 61/80/101
f 63/134/102 62/135/102 61/80/102
f 74/83/46 82/94/46 81/84/46
f 81/84/103 88/95/103 80/86/103
f 79/87/104 87/136/104 86/88/104
f 85/90/105 84/97/105 76/91/105
f 75/93/106 83/137/106 82/94/106
f 88/95/107 87/138/107 79/96/107
f 78/89/108 86/88/108 85/90/108
f 84/97/109 83/137/109 75/93/109
f 75/98/110 74/139/110 73/140/110
f 73/140/111 80/141/111 75/98/111
f 80/141/112 79/142/112 75/98/112
f 79/142/113 78/99/113 75/98/113
f 78/99/114 77/143/114 76/100/114
f 91/144/115 90/145/115 92/111/115
f 90/145/116 89/112/116 92/111/116
f 89/112/117 96/146/117 94/110/117
f 96/146/118 95/147/118 94/110/118
f 94/110/119 93/148/119 92/111/119
